com/xshi/hadoop/UserItemCountMapReduce$UserItemCountReducer.class
com/xshi/hadoop/CosineSimilarityMapReduce$CosineSimilarityReducer$Sums.class
com/xshi/hadoop/ItemVectorMapReduce$ItemVectorReducer.class
com/xshi/hadoop/UserVectorMapReduce$UserVectorReducer.class
com/xshi/hadoop/ItemVectorMapReduce$ItemVectorMapper.class
com/xshi/hadoop/CollectionUtils.class
com/xshi/hadoop/UserItemCountMapReduce.class
com/xshi/hadoop/UserItemCountMapReduce$UserItemCountMapper.class
com/xshi/hadoop/MathUtils.class
com/xshi/hadoop/UserVectorMapReduce.class
com/xshi/hadoop/CosineSimilarityMapReduce$CosineSimilarityReducer.class
com/xshi/hadoop/ItemVectorMapReduce.class
com/xshi/hadoop/CosineSimilarityMapReduce.class
com/xshi/hadoop/ItemSimilarityCalculator.class
com/xshi/hadoop/UserVectorMapReduce$UserVectorMapper.class
